<svg xmlns="http://www.w3.org/2000/svg" width="121.092" height="429.695" viewBox="0 0 121.092 429.695">
  <g id="Group_507" data-name="Group 507" transform="translate(1.953 1.829)">
    <path id="Path_756" data-name="Path 756" d="M96.346,388.959S68.1,392.5,35.124,338.539,54.361,239.346,6.268,151.115,96.346.862,96.346.862,95.914-41.371,96.346,388.959Z" transform="translate(21.872 19.477)" fill="#f2f2f2"/>
    <path id="Path_757" data-name="Path 757" d="M-2643.97,642.282s-52.841-8.856-84.574-82.938c-11.392-26.6,9.04-64.369-2.108-118.769s-46.3-67.1-24.6-125.8,111.391-98.389,111.391-98.389" transform="translate(2762.189 -216.388)" fill="none" stroke="#f2f2f2" stroke-width="4" stroke-dasharray="17"/>
  </g>
</svg>
