<svg xmlns="http://www.w3.org/2000/svg" width="23.25" height="23.25" viewBox="0 0 23.25 23.25">
  <path id="Icon_awesome-arrow-circle-up" data-name="Icon awesome-arrow-circle-up" d="M.375,12A11.625,11.625,0,1,1,12,23.625,11.623,11.623,0,0,1,.375,12Zm6.731,1.355L10.5,9.816v8.559A1.122,1.122,0,0,0,11.625,19.5h.75A1.122,1.122,0,0,0,13.5,18.375V9.816l3.394,3.539a1.126,1.126,0,0,0,1.608.019l.511-.516a1.12,1.12,0,0,0,0-1.589L12.8,5.048a1.12,1.12,0,0,0-1.589,0l-6.225,6.22a1.12,1.12,0,0,0,0,1.589l.511.516A1.132,1.132,0,0,0,7.106,13.355Z" transform="translate(-0.375 -0.375)" fill="#68b945"/>
</svg>
