<svg xmlns="http://www.w3.org/2000/svg" xmlns:xlink="http://www.w3.org/1999/xlink" width="511.307" height="313.095" viewBox="0 0 511.307 313.095">
  <defs>
    <linearGradient id="linear-gradient" x1="0.682" y1="0.175" x2="0.278" y2="0.898" gradientUnits="objectBoundingBox">
      <stop offset="0" stop-color="#41873f"/>
      <stop offset="0.329" stop-color="#418b3d"/>
      <stop offset="0.635" stop-color="#419637"/>
      <stop offset="0.932" stop-color="#3fa92d"/>
      <stop offset="1" stop-color="#3fae2a"/>
    </linearGradient>
    <linearGradient id="linear-gradient-2" x1="0.433" y1="0.552" x2="1.592" y2="-0.183" gradientUnits="objectBoundingBox">
      <stop offset="0.138" stop-color="#41873f"/>
      <stop offset="0.403" stop-color="#54a044"/>
      <stop offset="0.714" stop-color="#66b848"/>
      <stop offset="0.908" stop-color="#6cc04a"/>
    </linearGradient>
    <linearGradient id="linear-gradient-3" x1="-44.138" y1="0.134" x2="53.279" y2="0.134" gradientUnits="objectBoundingBox">
      <stop offset="0.092" stop-color="#6cc04a"/>
      <stop offset="0.286" stop-color="#66b848"/>
      <stop offset="0.597" stop-color="#54a044"/>
      <stop offset="0.862" stop-color="#41873f"/>
    </linearGradient>
    <linearGradient id="linear-gradient-4" x1="-0.044" y1="0.5" x2="1.015" y2="0.5" xlink:href="#linear-gradient-3"/>
    <linearGradient id="linear-gradient-5" x1="-97.138" y1="0.362" x2="0.279" y2="0.362" xlink:href="#linear-gradient-3"/>
    <linearGradient id="linear-gradient-6" x1="-1.039" y1="0.503" x2="1.008" y2="0.503" xlink:href="#linear-gradient-3"/>
    <linearGradient id="linear-gradient-7" x1="1.306" y1="-2.111" x2="0.044" y2="2.016" xlink:href="#linear-gradient"/>
  </defs>
  <g id="nodejs-1" transform="translate(-0.231 0)" opacity="0.47">
    <path id="Path_7300" data-name="Path 7300" d="M253.11,313.094a10.138,10.138,0,0,1-4.854-1.271l-15.371-9.13c-2.312-1.272-1.156-1.734-.462-1.965a28.039,28.039,0,0,0,6.934-3.12,1.062,1.062,0,0,1,1.156.115l11.789,7.05a1.468,1.468,0,0,0,1.386,0l46.115-26.7a1.329,1.329,0,0,0,.694-1.271v-53.28a1.329,1.329,0,0,0-.694-1.272L253.688,195.67a1.462,1.462,0,0,0-1.386,0l-46.115,26.582a1.451,1.451,0,0,0-.694,1.271V276.8a1.452,1.452,0,0,0,.694,1.272l12.6,7.281c6.819,3.467,11.1-.578,11.1-4.623V228.146a1.406,1.406,0,0,1,1.387-1.387h5.894a1.405,1.405,0,0,1,1.387,1.387v52.587c0,9.13-4.97,14.447-13.638,14.447-2.658,0-4.738,0-10.633-2.89l-12.135-6.934a9.753,9.753,0,0,1-4.854-8.437v-53.28a9.753,9.753,0,0,1,4.854-8.437l46.114-26.7a10.317,10.317,0,0,1,9.709,0l46.114,26.7a9.754,9.754,0,0,1,4.855,8.437v53.28a9.754,9.754,0,0,1-4.855,8.437l-46.114,26.7a11.821,11.821,0,0,1-4.854,1.04Zm14.216-36.637c-20.225,0-24.386-9.246-24.386-17.105a1.405,1.405,0,0,1,1.387-1.387h6.01a1.188,1.188,0,0,1,1.271,1.156c.925,6.125,3.583,9.13,15.834,9.13,9.708,0,13.87-2.2,13.87-7.4,0-3.005-1.157-5.2-16.3-6.7-12.6-1.272-20.457-4.045-20.457-14.1,0-9.362,7.86-14.91,21.035-14.91,14.793,0,22.075,5.086,23,16.18a1.866,1.866,0,0,1-.347,1.041,1.429,1.429,0,0,1-.925.462h-6.01a1.353,1.353,0,0,1-1.271-1.04c-1.387-6.356-4.97-8.437-14.447-8.437-10.633,0-11.9,3.7-11.9,6.472,0,3.352,1.5,4.392,15.834,6.241,14.216,1.85,20.92,4.508,20.92,14.447C290.326,270.678,282,276.457,267.326,276.457Z" fill="#539e43"/>
    <path id="Path_7301" data-name="Path 7301" d="M110.028,104.712a5.882,5.882,0,0,0-3-5.086l-49-28.2a7.117,7.117,0,0,0-2.658-.81H54.9a5.491,5.491,0,0,0-2.658.81l-49,28.2a5.879,5.879,0,0,0-3.005,5.086l.116,75.817a2.874,2.874,0,0,0,1.5,2.543,2.623,2.623,0,0,0,2.89,0l29.125-16.643a5.881,5.881,0,0,0,3.005-5.085V125.862a5.878,5.878,0,0,1,3.005-5.085l12.366-7.166a5.6,5.6,0,0,1,3.005-.81,4.969,4.969,0,0,1,2.89.81L70.5,120.777a5.877,5.877,0,0,1,3,5.085v35.482a5.881,5.881,0,0,0,3,5.085l29.125,16.643a2.821,2.821,0,0,0,3,0,2.873,2.873,0,0,0,1.5-2.543l-.116-75.817ZM345.571.347a3.178,3.178,0,0,0-2.89,0,3.012,3.012,0,0,0-1.5,2.542V78.014a2.081,2.081,0,0,1-3.12,1.849l-12.251-7.05a5.957,5.957,0,0,0-5.895,0l-49,28.316a5.881,5.881,0,0,0-3.005,5.085V162.73a5.882,5.882,0,0,0,3.005,5.086l49,28.316a5.957,5.957,0,0,0,5.895,0l49-28.316a5.881,5.881,0,0,0,3.005-5.086V21.844a5.928,5.928,0,0,0-3.005-5.2L345.572.347Zm-4.507,143.776a1.326,1.326,0,0,1-.694,1.271L323.612,155.1a1.714,1.714,0,0,1-1.5,0l-16.758-9.708a1.449,1.449,0,0,1-.694-1.271V124.706a1.326,1.326,0,0,1,.694-1.271l16.758-9.709a1.714,1.714,0,0,1,1.5,0l16.758,9.709a1.448,1.448,0,0,1,.694,1.271v19.417Zm167.584-19.879a5.771,5.771,0,0,0,2.89-5.086V105.405a6.02,6.02,0,0,0-2.89-5.085l-48.657-28.2a5.957,5.957,0,0,0-5.894,0l-49,28.315a5.879,5.879,0,0,0-3.005,5.086v56.516a5.878,5.878,0,0,0,3.005,5.085L453.75,194.86a5.741,5.741,0,0,0,5.779,0L489,178.45a2.9,2.9,0,0,0,0-5.086l-49.235-28.316a3.011,3.011,0,0,1-1.5-2.542V124.823a2.874,2.874,0,0,1,1.5-2.543l15.372-8.784a2.821,2.821,0,0,1,3.005,0l15.371,8.784a3.011,3.011,0,0,1,1.5,2.543v13.869a2.871,2.871,0,0,0,1.5,2.542,2.821,2.821,0,0,0,3.005,0l29.125-16.99Z" fill="#333"/>
    <path id="Path_7302" data-name="Path 7302" d="M456.293,121.586a1.05,1.05,0,0,1,1.155,0l9.362,5.432a1.211,1.211,0,0,1,.578,1.04v10.864a1.213,1.213,0,0,1-.578,1.04l-9.362,5.432a1.05,1.05,0,0,1-1.155,0l-9.362-5.432a1.213,1.213,0,0,1-.578-1.04V128.058a1.211,1.211,0,0,1,.578-1.04Z" fill="#539e43"/>
    <g id="Group_528" data-name="Group 528" transform="translate(134.068 70.501)">
      <path id="Path_7303" data-name="Path 7303" d="M57.9,1.85a5.957,5.957,0,0,0-5.894,0L3.352,29.933a5.771,5.771,0,0,0-2.89,5.085V91.3a6.02,6.02,0,0,0,2.89,5.085l48.657,28.085a5.957,5.957,0,0,0,5.894,0l48.658-28.085a5.773,5.773,0,0,0,2.89-5.085V35.019a6.022,6.022,0,0,0-2.89-5.085Z" fill="url(#linear-gradient)"/>
      <g id="Group_526" data-name="Group 526">
        <path id="Path_7304" data-name="Path 7304" d="M51.893,1.85,3.121,29.933A6,6,0,0,0,0,35.02V91.306A5.567,5.567,0,0,0,1.5,95L56.285,1.156a6.6,6.6,0,0,0-4.392.693Zm4.739,123.2a7.106,7.106,0,0,0,1.387-.578L106.792,96.39a5.878,5.878,0,0,0,3-5.085V35.019a5.887,5.887,0,0,0-1.734-4.045l-51.43,94.079Z" fill="none"/>
        <path id="Path_7305" data-name="Path 7305" d="M106.676,29.934,57.788,1.85a8.025,8.025,0,0,0-1.5-.578L1.5,95.12a6.082,6.082,0,0,0,1.619,1.387l48.888,28.085a5.631,5.631,0,0,0,4.507.577l51.432-94.078a6.065,6.065,0,0,0-1.272-1.156Z" fill="url(#linear-gradient-2)"/>
      </g>
      <g id="Group_527" data-name="Group 527">
        <path id="Path_7306" data-name="Path 7306" d="M109.8,91.305V35.019a5.993,5.993,0,0,0-3.12-5.085L57.786,1.85a5.106,5.106,0,0,0-1.848-.693l53.511,91.42a2.331,2.331,0,0,0,.347-1.271ZM3.12,29.934A6,6,0,0,0,0,35.02V91.306a6.249,6.249,0,0,0,3.12,5.085l48.889,28.085a5.443,5.443,0,0,0,3.814.693L3.467,29.818l-.346.116Z" fill="none"/>
        <path id="Path_7307" data-name="Path 7307" d="M50.391.809l-.693.347h.924Z" transform="translate(0 -9.246)" fill-rule="evenodd" fill="url(#linear-gradient-3)"/>
        <path id="Path_7308" data-name="Path 7308" d="M106.792,105.636a6.575,6.575,0,0,0,2.89-3.7L56.053,10.4a5.868,5.868,0,0,0-4.16.693L3.351,39.065,55.706,134.53a8.057,8.057,0,0,0,2.2-.693l48.889-28.2Z" transform="translate(0 -9.246)" fill-rule="evenodd" fill="url(#linear-gradient-4)"/>
        <path id="Path_7309" data-name="Path 7309" d="M111.3,104.712l-.347-.578v.809l.346-.231Z" transform="translate(0 -9.246)" fill-rule="evenodd" fill="url(#linear-gradient-5)"/>
        <path id="Path_7310" data-name="Path 7310" d="M106.792,105.636,58.019,133.721a6.972,6.972,0,0,1-2.2.693l.925,1.734,54.089-31.32v-.694l-1.387-2.312a5.37,5.37,0,0,1-2.658,3.814Z" transform="translate(0 -9.246)" fill-rule="evenodd" fill="url(#linear-gradient-6)"/>
        <path id="Path_7311" data-name="Path 7311" d="M106.792,105.636,58.019,133.721a6.972,6.972,0,0,1-2.2.693l.925,1.734,54.089-31.32v-.694l-1.387-2.312a5.37,5.37,0,0,1-2.658,3.814Z" transform="translate(0 -9.246)" fill-rule="evenodd" fill="url(#linear-gradient-7)"/>
      </g>
    </g>
  </g>
</svg>
