<svg xmlns="http://www.w3.org/2000/svg" width="39.083" height="67" viewBox="0 0 39.083 67">
  <g id="sand-clock" transform="translate(-106.667)">
    <g id="Group_515" data-name="Group 515" transform="translate(106.667)">
      <path id="Path_7154" data-name="Path 7154" d="M141.563,0H110.855a4.188,4.188,0,0,0,0,8.375h30.708a4.188,4.188,0,1,0,0-8.375Z" transform="translate(-106.667)" fill="#455a64"/>
      <path id="Path_7155" data-name="Path 7155" d="M160.1,98.5H129.4a1.4,1.4,0,0,1-1.4-1.4V85.421a12.562,12.562,0,0,1,4.291-9.455l4.95-4.333a1.4,1.4,0,0,0,0-2.1l-4.95-4.333A12.562,12.562,0,0,1,128,55.746V44.063a1.4,1.4,0,0,1,1.4-1.4H160.1a1.4,1.4,0,0,1,1.4,1.4V55.746a12.562,12.562,0,0,1-4.291,9.455l-4.95,4.333a1.4,1.4,0,0,0,0,2.1l4.95,4.333a12.562,12.562,0,0,1,4.291,9.455V97.1A1.4,1.4,0,0,1,160.1,98.5Z" transform="translate(-125.208 -37.084)" fill="#455a64"/>
    </g>
    <path id="Path_7156" data-name="Path 7156" d="M149.333,114.25H177.25V103.963a9.771,9.771,0,0,0-3.35-7.353l-4.95-4.333a4.188,4.188,0,0,1,0-6.3l4.95-4.333a9.771,9.771,0,0,0,3.35-7.353V64H149.333V74.287a9.771,9.771,0,0,0,3.35,7.353l4.95,4.333a4.187,4.187,0,0,1,0,6.3l-4.95,4.336a9.771,9.771,0,0,0-3.35,7.353Z" transform="translate(-37.083 -55.625)" fill="#eceff1"/>
    <path id="Path_7157" data-name="Path 7157" d="M208.627,171.53a1.4,1.4,0,0,0-1.29-.863H193.379a1.4,1.4,0,0,0-.988,2.384l6.979,6.979a1.4,1.4,0,0,0,1.974,0l6.979-6.979A1.4,1.4,0,0,0,208.627,171.53Z" transform="translate(-74.15 -148.334)" fill="#ffc107"/>
    <path id="Path_7158" data-name="Path 7158" d="M141.563,448H110.855a4.188,4.188,0,1,0,0,8.375h30.708a4.188,4.188,0,1,0,0-8.375Z" transform="translate(0 -389.375)" fill="#455a64"/>
    <path id="Path_7159" data-name="Path 7159" d="M164.229,331.042a1.4,1.4,0,0,0-1.924.047l-12.973,12.97v1.974H177.25v-3.155Z" transform="translate(-37.083 -287.408)" fill="#ffc107"/>
  </g>
</svg>
