<svg xmlns="http://www.w3.org/2000/svg" width="65.272" height="67" viewBox="0 0 65.272 67">
  <g id="video-tutorials" transform="translate(-6.603)">
    <path id="Path_7115" data-name="Path 7115" d="M304.183,254.722H286.453a3.9,3.9,0,0,0-3.9,3.9v29.766H304.7V274.875h2.813a4.2,4.2,0,0,0,4.2-4.2v-8.425A7.53,7.53,0,0,0,304.183,254.722Z" transform="translate(-239.839 -221.389)" fill="#4980ac"/>
    <path id="Path_7116" data-name="Path 7116" d="M333.008,408.728h15.548v3.841H333.008Z" transform="translate(-283.692 -355.242)" fill="#407194"/>
    <path id="Path_7117" data-name="Path 7117" d="M389.993,254.873v14.6h-9.309v5.536h12.122a4.2,4.2,0,0,0,4.2-4.2v-8.425A7.529,7.529,0,0,0,389.993,254.873Z" transform="translate(-325.129 -221.52)" fill="#5d91b9"/>
    <path id="Path_7118" data-name="Path 7118" d="M279.34,3.127v13.8H303.7V10.639a9.15,9.15,0,0,0-9.15-9.15h-7.661a4.067,4.067,0,0,1-2.168-.626l-.6-.378a3.122,3.122,0,0,0-4.786,2.641Z" transform="translate(-237.047 0)" fill="#be694e"/>
    <path id="Path_7119" data-name="Path 7119" d="M344.181,172.706V184.1a3.186,3.186,0,0,0,3.186,3.186h1.022a3.186,3.186,0,0,0,3.186-3.186V172.706Z" transform="translate(-293.403 -150.106)" fill="#ebae9d"/>
    <path id="Path_7120" data-name="Path 7120" d="M270.973,108.693a3.107,3.107,0,0,0,3.107,3.107h20.34a3.107,3.107,0,0,0,0-6.214H274.08A3.107,3.107,0,0,0,270.973,108.693Z" transform="translate(-229.775 -91.769)" fill="#ffcdbe"/>
    <path id="Path_7121" data-name="Path 7121" d="M314.787,64.391V77.447a7.129,7.129,0,0,0,7.129,7.129h.829a7.129,7.129,0,0,0,7.129-7.129V68.98a4.993,4.993,0,0,0-4.993-4.993h-9.689A.4.4,0,0,0,314.787,64.391Z" transform="translate(-267.855 -55.614)" fill="#ffcdbe"/>
    <path id="Path_7122" data-name="Path 7122" d="M354.2,175.428h-.295a3.369,3.369,0,0,1-2.353-.958.876.876,0,1,1,1.219-1.259,1.626,1.626,0,0,0,1.134.464h.295a1.626,1.626,0,0,0,1.134-.464.876.876,0,1,1,1.219,1.259A3.369,3.369,0,0,1,354.2,175.428Z" transform="translate(-299.579 -150.33)" fill="#e09380"/>
    <path id="Path_7123" data-name="Path 7123" d="M159.518,246.973H131.7a1.567,1.567,0,0,1-1.567-1.567v-5.68a1.567,1.567,0,0,1,1.567-1.567h27.815a1.567,1.567,0,0,1,1.567,1.567v5.68A1.567,1.567,0,0,1,159.518,246.973Z" transform="translate(-107.368 -206.994)" fill="#80b6fc"/>
    <path id="Path_7124" data-name="Path 7124" d="M329.4,238.158h-3.8a1.567,1.567,0,0,1,1.567,1.567v22.954a1.567,1.567,0,0,1-1.567,1.567h3.8a1.567,1.567,0,0,0,1.567-1.567V239.725A1.567,1.567,0,0,0,329.4,238.158Z" transform="translate(-277.245 -206.993)" fill="#62a4fb"/>
    <path id="Path_7125" data-name="Path 7125" d="M159.518,299.21H131.7a1.567,1.567,0,0,1-1.567-1.567V274.69a1.567,1.567,0,0,1,1.567-1.567h27.815a1.567,1.567,0,0,1,1.567,1.567v22.954A1.567,1.567,0,0,1,159.518,299.21Z" transform="translate(-107.368 -237.382)" fill="#ddebfd"/>
    <path id="Path_7126" data-name="Path 7126" d="M330.96,274.69v22.954a1.567,1.567,0,0,1-1.567,1.567h-3.8a1.566,1.566,0,0,0,1.567-1.567v-24.52h2.238A1.567,1.567,0,0,1,330.96,274.69Z" transform="translate(-277.243 -237.382)" fill="#bed9fd"/>
    <path id="Path_7127" data-name="Path 7127" d="M219.43,306.909v7.738a.65.65,0,0,0,.99.553l6.279-3.869a.65.65,0,0,0,0-1.106l-6.279-3.869a.65.65,0,0,0-.99.553Z" transform="translate(-184.977 -266.181)" fill="#df646e"/>
    <path id="Path_7128" data-name="Path 7128" d="M194.885,421.971h-16.9a.876.876,0,1,1,0-1.752h16.9a.876.876,0,0,1,0,1.752Z" transform="translate(-148.191 -365.229)" fill="#5d91b9"/>
    <circle id="Ellipse_372" data-name="Ellipse 372" cx="2.107" cy="2.107" r="2.107" transform="translate(31.297 54.724) rotate(-22.514)" fill="#df646e"/>
    <g id="Group_514" data-name="Group 514" transform="translate(33.045 47.95)">
      <path id="Path_7129" data-name="Path 7129" d="M343.913,371.958h-3.037a2.5,2.5,0,0,1-2.5-2.5v-3.037h5.536Z" transform="translate(-321.404 -366.422)" fill="#ffcdbe"/>
      <path id="Path_7130" data-name="Path 7130" d="M315.521,368.174h-4.116a.876.876,0,1,1,0-1.752h4.116a.876.876,0,0,1,0,1.752Z" transform="translate(-297.2 -366.422)" fill="#ffcdbe"/>
      <path id="Path_7131" data-name="Path 7131" d="M213.357,476.379h-3.219a1.468,1.468,0,0,1-1.468-1.468v-2.435h6.154v2.435A1.468,1.468,0,0,1,213.357,476.379Z" transform="translate(-208.67 -458.598)" fill="#ffcdbe"/>
    </g>
    <ellipse id="Ellipse_373" data-name="Ellipse 373" cx="14.052" cy="14.244" rx="14.052" ry="14.244" transform="translate(6.603 11.508)" fill="#f5de46"/>
    <path id="Path_7132" data-name="Path 7132" d="M40.262,126.261a14.35,14.35,0,0,1,1.341,6.078,14.149,14.149,0,0,1-14.052,14.244,13.945,13.945,0,0,1-10.7-5.014,14.024,14.024,0,0,0,26.764-6.078A14.3,14.3,0,0,0,40.262,126.261Z" transform="translate(-8.904 -109.738)" fill="#ecc52e"/>
    <path id="Path_7133" data-name="Path 7133" d="M64.17,187.971v6.8a.725.725,0,0,0,.539.7l5.624,1.461a1.416,1.416,0,0,0,.712,0l5.624-1.461a.725.725,0,0,0,.539-.7v-6.8Z" transform="translate(-50.034 -163.373)" fill="#407194"/>
    <path id="Path_7134" data-name="Path 7134" d="M55.573,165.546,45.7,162.565a.709.709,0,0,0-.409,0l-9.869,2.981a.319.319,0,0,0-.2.163l-.006.012a.4.4,0,0,0-.035.187v3.782a.876.876,0,1,0,1.752,0v-3.051l8.355,2.523a.709.709,0,0,0,.409,0l9.869-2.981A.333.333,0,0,0,55.573,165.546Z" transform="translate(-24.844 -141.266)" fill="#5d91b9"/>
  </g>
</svg>
